[gd_scene load_steps=4 format=2]

[ext_resource path="res://entities/coffee.gd" type="Script" id=1]
[ext_resource path="res://entities/coffee.PNG" type="Texture" id=2]

[sub_resource type="CapsuleShape2D" id=1]
radius = 226.326
height = 256.578

[node name="coffee" type="Node2D"]
scale = Vector2( 0.05, 0.05 )
script = ExtResource( 1 )

[node name="Sprite" type="Sprite" parent="."]
texture = ExtResource( 2 )
region_enabled = true
region_rect = Rect2( -669.242, -642.616, 2000, 2000 )

[node name="Area2D" type="Area2D" parent="."]

[node name="CollisionShape2D" type="CollisionShape2D" parent="Area2D"]
shape = SubResource( 1 )

[connection signal="mouse_entered" from="Area2D" to="." method="_on_Area2D_mouse_entered"]
[connection signal="mouse_exited" from="Area2D" to="." method="_on_Area2D_mouse_exited"]
