[gd_scene load_steps=6 format=2]

[ext_resource path="res://entities/fridge.gd" type="Script" id=1]
[ext_resource path="res://entities/fridge_closed.PNG" type="Texture" id=2]
[ext_resource path="res://misc/outline.shader" type="Shader" id=3]

[sub_resource type="ShaderMaterial" id=2]
shader = ExtResource( 3 )
shader_param/outLineSize = 0.012
shader_param/outLineColor = Plane( 1, 1, 0, 1 )

[sub_resource type="RectangleShape2D" id=1]
extents = Vector2( 30.1715, 25.1884 )

[node name="Fridge" type="Node2D"]
script = ExtResource( 1 )

[node name="Sprite" type="Sprite" parent="."]
material = SubResource( 2 )
position = Vector2( 174.01, 331.512 )
texture = ExtResource( 2 )

[node name="Area2D" type="Area2D" parent="."]

[node name="CollisionShape2D" type="CollisionShape2D" parent="Area2D"]
position = Vector2( 30.1876, 25.2065 )
shape = SubResource( 1 )

[connection signal="mouse_entered" from="Area2D" to="." method="_on_Area2D_mouse_entered"]
[connection signal="mouse_exited" from="Area2D" to="." method="_on_Area2D_mouse_exited"]
